Collision no: 1
Train 1: 12350
Train 2: 12351
Collision Type: REAREND

Collision no: 2
Train 1: 12352
Train 2: 12353
Collision Type: REAREND

Collision no: 3
Train 1: 12354
Train 2: 12355
Collision Type: REAREND

Collision no: 4
Train 1: 12356
Train 2: 12357
Collision Type: HEADON

Collision no: 5
Train 1: 12358
Train 2: 12360
Collision Type: HEADON

Collision no: 6
Train 1: 12359
Train 2: 12361
Collision Type: HEADON

Collision no: 7
Train 1: 12363
Train 2: 12364
Collision Type: REAREND

Collision no: 8
Train 1: 12365
Train 2: 12366
Collision Type: HEADON

Collision no: 9
Train 1: 12369
Train 2: 12370
Collision Type: REAREND

Collision no: 10
Train 1: 12372
Train 2: 12373
Collision Type: HEADON


-----------------
Headon Detected: 22
Rear End Detected: 9
noOfMessages: 49
Actual Headon: 5
Actual Rear End: 5
Toal Collisions: 10
